Big mtcars
…
# select columns to work with
big_epa_cars %>%
      select(city08, highway08, make, model, cylinders, 
             displ, drive, engId, eng_dscr)

## # A tibble: 41,804 x 9
##    city08 highway08 make    model     cylinders displ drive       engId eng_dscr
##     <dbl>     <dbl> <chr>   <chr>         <dbl> <dbl> <chr>       <dbl> <chr>   
##  1     19        25 Alfa R Spider V         4   2   Rear-Wheel  9011 (FFS)   
##  2      9        14 Ferrari Testaros        12   4.9 Rear-Wheel 22020 (GUZZLE
##  3     23        33 Dodge   Charger           4   2.2 Front-Whee  2100 (FFS)   
##  4     10        12 Dodge   B150/B25         8   5.2 Rear-Wheel  2850 <NA>    
##  5     17        23 Subaru  Legacy A         4   2.2 4-Wheel or 66031 (FFS,TR
##  6     21        24 Subaru  Loyale            4   1.8 Front-Whee 66020 (FFS)   
##  7     22        29 Subaru  Loyale            4   1.8 Front-Whee 66020 (FFS)   
##  8     23        26 Toyota  Corolla           4   1.6 Front-Whee 57005 (FFS)   
##  9     23        31 Toyota  Corolla           4   1.6 Front-Whee 57005 (FFS)   
## 10     23        30 Toyota  Corolla           4   1.8 Front-Whee 57006 (FFS)   
## #  with 41,794 more rows
…
